cse4010_spring25/lab_3/lab3a/fullAdder_tb.vcd
$date
	Sat Mar  1 21:22:49 2025
$end
$version
	Icarus Verilog
$end
$timescale
	1ns
$end
$scope module fullAdder_tb $end
$var wire 1 ! sum $end
$var wire 1 " Cout $end
$var reg 1 # A $end
$var reg 1 $ B $end
$var reg 1 % Cin $end
$scope module uut $end
$var wire 1 # A $end
$var wire 1 $ B $end
$var wire 1 % Cin $end
$var wire 1 " Cout $end
$var wire 1 ! sum $end
$var wire 1 & f $end
$var wire 1 ' e $end
$var wire 1 ( d $end
$var wire 1 ) c $end
$scope module u1 $end
$var wire 1 ( carry $end
$var wire 1 # op1 $end
$var wire 1 $ op2 $end
$var wire 1 ) sum $end
$upscope $end
$scope module u2 $end
$var wire 1 & carry $end
$var wire 1 % op1 $end
$var wire 1 ) op2 $end
$var wire 1 ' sum $end
$upscope $end
$upscope $end
$upscope $end
$enddefinitions $end
$comment Show the parameter values. $end
$dumpall
$end
#0
$dumpvars
0)
0(
0'
0&
0%
0$
0#
0"
0!
$end
#20
1!
1'
1%
#40
1)
1!
1'
1$
0%
#60
1"
0!
0'
1&
1%
#80
0"
1!
1'
0&
1#
0$
0%
#100
1"
0!
0'
1&
1%
#120
0)
1(
0!
0'
0&
1$
0%
#140
1!
1'
1%
